<?xml version="1.0" encoding="UTF-8"?>
<svg width="768px" height="693px" viewBox="0 0 768 693" version="1.1" xmlns="http://www.w3.org/2000/svg" xmlns:xlink="http://www.w3.org/1999/xlink">
    <!-- Generator: Sketch 46.2 (44496) - http://www.bohemiancoding.com/sketch -->
    <title>Path 19</title>
    <desc>Created with Sketch.</desc>
    <defs>
        <linearGradient x1="-0.406898339%" y1="58.3669878%" x2="99.5931017%" y2="41.6330122%" id="linearGradient-1">
            <stop stop-color="#F8E71C" offset="0%"></stop>
            <stop stop-color="#F9D12B" offset="100%"></stop>
        </linearGradient>
    </defs>
    <g id="Tablet" stroke="none" stroke-width="1" fill="none" fill-rule="evenodd">
        <g id="Main-Tablet" transform="translate(0.000000, -501.000000)" fill="url(#linearGradient-1)">
            <g id="Group-3" transform="translate(-559.000000, -177.000000)">
                <path d="M0,1084.00074 C63.7886521,972.001163 164.082858,915.668041 300.882618,915.001377 C506.082258,914.001381 605.223657,1085.00074 861.146803,1047.00088 C1117.06995,1009.00102 1149.34854,780.001885 1375.29871,646.00239 C1601.24887,512.002894 1911.35395,707.00216 1917.11798,708.002156 C1920.96067,708.66882 1920.96067,936.334768 1917.11798,1391 L0,1391 L0,1084.00074 Z" id="Path-19"></path>
            </g>
        </g>
    </g>
</svg>