<?xml version="1.0" encoding="UTF-8"?>
<svg width="23px" height="118px" viewBox="0 0 23 118" version="1.1" xmlns="http://www.w3.org/2000/svg" xmlns:xlink="http://www.w3.org/1999/xlink">
    <!-- Generator: Sketch 46.2 (44496) - http://www.bohemiancoding.com/sketch -->
    <title>arrow</title>
    <desc>Created with Sketch.</desc>
    <defs></defs>
    <g id="Desktop" stroke="none" stroke-width="1" fill="none" fill-rule="evenodd">
        <g id="flowers" transform="translate(-1855.000000, -168.000000)" stroke="#4A90E2" stroke-width="2">
            <g id="Category" transform="translate(1552.000000, 167.000000)">
                <g id="arrow" transform="translate(314.500000, 60.500000) rotate(-270.000000) translate(-314.500000, -60.500000) translate(257.000000, 50.000000)">
                    <path d="M1.5,11 L114.017776,11" id="Line-2" stroke-linecap="square"></path>
                    <polyline id="Path-19" points="12 0 0 10.6842105 12 21"></polyline>
                </g>
            </g>
        </g>
    </g>
</svg>