<?xml version="1.0" encoding="UTF-8"?>
<svg width="51px" height="23px" viewBox="0 0 51 23" version="1.1" xmlns="http://www.w3.org/2000/svg" xmlns:xlink="http://www.w3.org/1999/xlink">
    <!-- Generator: Sketch 46.2 (44496) - http://www.bohemiancoding.com/sketch -->
    <title>Group</title>
    <desc>Created with Sketch.</desc>
    <defs></defs>
    <g id="Desktop" stroke="none" stroke-width="1" fill="none" fill-rule="evenodd">
        <g id="Detail-2" transform="translate(-1576.000000, -49.000000)" stroke="#9B9B9B" stroke-width="2">
            <g id="Group-13" transform="translate(1578.000000, 43.000000)">
                <g id="Group" transform="translate(0.000000, 7.000000)">
                    <path d="M1.5,11 L48,11" id="Line-2" stroke-linecap="square"></path>
                    <polyline id="Path-19" points="12 0 0 10.6842105 12 21"></polyline>
                </g>
            </g>
        </g>
    </g>
</svg>