<svg id="Слой_1" data-name="Слой 1" xmlns="http://www.w3.org/2000/svg" xmlns:xlink="http://www.w3.org/1999/xlink" viewBox="0 0 1920 682">
	<defs><style>.cls-1{fill:url(#Безымянный_градиент_2);}</style>
		<linearGradient id="Безымянный_градиент_2" x1="1.01" y1="1079.76" x2="2.01" y2="1079.93" gradientTransform="matrix(1920, 0, 0, -682, -1919, 737243)" gradientUnits="userSpaceOnUse">
			<stop offset="0" stop-color="#f8e71c"/>
			<stop offset="1" stop-color="#f9d12b"/>
		</linearGradient>
	</defs>
	<title>yellow-wave</title>
	 <g id="Main" >
		<!--<path id="Path-19" class="cls-1" >
		  <animate
		    attributeName="d"
		    dur="2000ms"
		    repeatCount="indefinite"
		    values="
				M3,1015.4c63.8-112,199.3-89.3,336.1-90c205.2-1,275,114.8,530.9,76.8
				c255.9-38,303.5-64.6,529.4-198.6s514.9-2.9,520.6-1.9c3.8,0.7,3.8-159,0,222.3H3V1015.4z;


				M3,827c63.8-112,164.1-168.3,300.9-169c205.2-1,304.3,170,560.3,132
				c255.9-38,288.2-267,514.2-401s536.1,61,541.8,62c3.8,0.7,3.8,191.7,0,573H3V827z"
		  />
		</path>-->

		<path id="Path-19" transform="translate(-3.000000, -342.000000)" class="cls-1" d="M3,827c63.8-112,164.1-168.3,300.9-169c205.2-1,304.3,170,560.3,132
				c255.9-38,288.2-267,514.2-401s536.1,61,541.8,62c3.8,0.7,3.8,191.7,0,573H3V827z">
	</g>
</svg>